Data Wrangling: Part I
…
<img src="img/data-wrangle.002.jpeg" width="80%" style="display: block; margin: auto;" />

`slice()` and `filter()` 

---

`select` is used to select certain variables in the data frame. 

```r
select(ca_covid_hosp, county, todays_date, hospitalized_covid_confirmed_patients)
```

```
# A tibble: 47,205 × 3
  county     todays_date hospitalized_covid_confirmed_patients
  <chr>      <date>                                      <dbl>
1 Placer     2020-03-29                                     18
2 Kern       2020-03-29                                     16
3 Madera     2020-03-29                                      1
4 Mendocino  2020-03-29                                      1
5 Tehama     2020-03-29                                      0
6 Stanislaus 2020-03-29                                     20
# … with 47,199 more rows
```

---

```r
ca_covid_hosp %>% 
  select(county, todays_date, hospitalized_covid_confirmed_patients)
```

```
# A tibble: 47,205 × 3
  county     todays_date hospitalized_covid_confirmed_patients
  <chr>      <date>                                      <dbl>
1 Placer     2020-03-29                                     18
2 Kern       2020-03-29                                     16
3 Madera     2020-03-29                                      1
4 Mendocino  2020-03-29                                      1
5 Tehama     2020-03-29                                      0
6 Stanislaus 2020-03-29                                     20
# … with 47,199 more rows
```

---

`select` can also be used to drop certain variables if used with a negative sign.

```r
select(ca_covid_hosp, -all_hospital_beds, -icu_available_beds)
```

```
# A tibble: 47,205 × 7
  county     todays_date hospitalized_covid_c… hospitalized_su… hospitalized_co…
  <chr>      <date>                      <dbl>            <dbl>            <dbl>
1 Placer     2020-03-29                     18               14               NA
2 Kern       2020-03-29                     16               57               NA
3 Madera     2020-03-29                      1                6               NA
4 Mendocino  2020-03-29                      1               11               NA
5 Tehama     2020-03-29                      0                0               NA
6 Stanislaus 2020-03-29                     20               48               NA
# … with 47,199 more rows, and 2 more variables:
#   icu_covid_confirmed_patients <dbl>, icu_suspected_covid_patients <dbl>
```
…
## Selection helpers

`starts_with()`  
`ends_with()`  
`contains()`  

---

```r
select(ca_covid_hosp,  starts_with("hospitalized"))
```

```
# A tibble: 47,205 × 3
  hospitalized_covid_confirmed_patients hospitalized_suspected… hospitalized_co…
                                  <dbl>                   <dbl>            <dbl>
1                                    18                      14               NA
2                                    16                      57               NA
3                                     1                       6               NA
4                                     1                      11               NA
5                                     0                       0               NA
6                                    20                      48               NA
# … with 47,199 more rows
```

---

```r
select(ca_covid_hosp, ends_with("covid_confirmed_patients"))
```

```
# A tibble: 47,205 × 2
  hospitalized_covid_confirmed_patients icu_covid_confirmed_patients
                                  <dbl>                        <dbl>
1                                    18                            4
2                                    16                            8
3                                     1                            1
4                                     1                            0
5                                     0                            0
6                                    20                            9
# … with 47,199 more rows
```

---

```r
select(ca_covid_hosp, contains("suspected"))
```

```
# A tibble: 47,205 × 2
  hospitalized_suspected_covid_patients icu_suspected_covid_patients
                                  <dbl>                        <dbl>
1                                    14                            1
2                                    57                            8
3                                     6                            1
4                                    11                            0
5                                     0                            0
6                                    48                            8
# … with 47,199 more rows
```
…
---

`filter()` subsetting rows based on a condition.

The data below includes rows corresponding to Orange county.

```r
filter(ca_covid_hosp, county == "Orange")
```

```
# A tibble: 843 × 9
  county todays_date hospitalized_covid_confi… hospitalized_su… hospitalized_co…
  <chr>  <date>                          <dbl>            <dbl>            <dbl>
1 Orange 2020-03-29                         74              167               NA
2 Orange 2020-03-30                         98              251               NA
3 Orange 2020-03-31                        105              233               NA
4 Orange 2020-04-01                        117              221               NA
5 Orange 2020-04-02                        129              225               NA
6 Orange 2020-04-03                        131              182               NA
# … with 837 more rows, and 4 more variables: all_hospital_beds <dbl>,
#   icu_covid_confirmed_patients <dbl>, icu_suspected_covid_patients <dbl>,
#   icu_available_beds <dbl>
```
…
Q. On which days the total number of hospitalized confirmed COVID patients in Orange county exceeded 2000?

.

---

```r
ca_covid_hosp %>% 
  filter(county == "Orange" & 
           hospitalized_covid_confirmed_patients > 2200)
```

```
# A tibble: 7 × 9
  county todays_date hospitalized_covid_confi… hospitalized_su… hospitalized_co…
  <chr>  <date>                          <dbl>            <dbl>            <dbl>
1 Orange 2021-01-04                       2236               42             2278
2 Orange 2021-01-05                       2250               42             2292
3 Orange 2021-01-06                       2253               53             2306
4 Orange 2021-01-07                       2259               49             2308
5 Orange 2021-01-08                       2221               39             2260
6 Orange 2021-01-09                       2216               34             2250
# … with 1 more row, and 4 more variables: all_hospital_beds <dbl>,
#   icu_covid_confirmed_patients <dbl>, icu_suspected_covid_patients <dbl>,
#   icu_available_beds <dbl>
```
…
Moving forward we are only going to use `county`, `todays_date`, and `hospitalized_covid_confirmed_patients`. Let's clean our data accordingly and move on with the smaller `ca_covid_hosp` data that we need.

---

class: middle

```r
ca_covid_hosp %>% 
  select(county, 
         todays_date, 
         hospitalized_covid_confirmed_patients)
```

```
# A tibble: 47,205 × 3
  county     todays_date hospitalized_covid_confirmed_patients
  <chr>      <date>                                      <dbl>
1 Placer     2020-03-29                                     18
2 Kern       2020-03-29                                     16
3 Madera     2020-03-29                                      1
4 Mendocino  2020-03-29                                      1
5 Tehama     2020-03-29                                      0
6 Stanislaus 2020-03-29                                     20
# … with 47,199 more rows
```
…
